[
    {
        "uid": 0,
        "title": "Clarice",
        "url": "http://halcyon-theme.tumblr.com/",
        "added": "2007-12-01T00:26:00 +03:00",
        "type": "page",
        "views": "0",
        "likes": "2",
        "comments": "0",
        "permalink": "http://zootool.com/watch/5rqqi/",
        "tinyurl": "http://zoo.tl/5rqqi",
        "thumbnail": "http://placehold.it/32x32",
        "image": "http://placehold.it/100x100",
        "referer": "http://halcyon-theme.tumblr.com/",
        "description": "",
        "tags": [
            "bestofmasonry",
            "masonry",
            "premiumtheme",
            "tumblr",
            "tumblrtheme"
        ],
        "inthezoo": false,
        "public": true
    },
    {
        "uid": 1,
        "title": "Lowe",
        "url": "http://halcyon-theme.tumblr.com/",
        "added": "2009-08-21T01:27:21 +03:00",
        "type": "page",
        "views": "0",
        "likes": "2",
        "comments": "0",
        "permalink": "http://zootool.com/watch/5rqqi/",
        "tinyurl": "http://zoo.tl/5rqqi",
        "thumbnail": "http://placehold.it/32x32",
        "image": "http://placehold.it/100x100",
        "referer": "http://halcyon-theme.tumblr.com/",
        "description": "",
        "tags": [
            "bestofmasonry",
            "masonry",
            "premiumtheme",
            "tumblr",
            "tumblrtheme"
        ],
        "inthezoo": false,
        "public": true
    },
    {
        "uid": 2,
        "title": "Carney",
        "url": "http://halcyon-theme.tumblr.com/",
        "added": "2011-04-29T10:01:40 +03:00",
        "type": "page",
        "views": "0",
        "likes": "2",
        "comments": "0",
        "permalink": "http://zootool.com/watch/5rqqi/",
        "tinyurl": "http://zoo.tl/5rqqi",
        "thumbnail": "http://placehold.it/32x32",
        "image": "http://placehold.it/100x100",
        "referer": "http://halcyon-theme.tumblr.com/",
        "description": "",
        "tags": [
            "bestofmasonry",
            "masonry",
            "premiumtheme",
            "tumblr",
            "tumblrtheme"
        ],
        "inthezoo": false,
        "public": true
    },
    {
        "uid": 3,
        "title": "Stacy",
        "url": "http://halcyon-theme.tumblr.com/",
        "added": "1992-08-06T07:57:32 +03:00",
        "type": "page",
        "views": "0",
        "likes": "2",
        "comments": "0",
        "permalink": "http://zootool.com/watch/5rqqi/",
        "tinyurl": "http://zoo.tl/5rqqi",
        "thumbnail": "http://placehold.it/32x32",
        "image": "http://placehold.it/100x100",
        "referer": "http://halcyon-theme.tumblr.com/",
        "description": "",
        "tags": [
            "bestofmasonry",
            "masonry",
            "premiumtheme",
            "tumblr",
            "tumblrtheme"
        ],
        "inthezoo": false,
        "public": true
    },
    {
        "uid": 4,
        "title": "Cornelia",
        "url": "http://halcyon-theme.tumblr.com/",
        "added": "1989-06-08T21:26:37 +03:00",
        "type": "page",
        "views": "0",
        "likes": "2",
        "comments": "0",
        "permalink": "http://zootool.com/watch/5rqqi/",
        "tinyurl": "http://zoo.tl/5rqqi",
        "thumbnail": "http://placehold.it/32x32",
        "image": "http://placehold.it/100x100",
        "referer": "http://halcyon-theme.tumblr.com/",
        "description": "",
        "tags": [
            "bestofmasonry",
            "masonry",
            "premiumtheme",
            "tumblr",
            "tumblrtheme"
        ],
        "inthezoo": false,
        "public": true
    },
    {
        "uid": 5,
        "title": "Janette",
        "url": "http://halcyon-theme.tumblr.com/",
        "added": "1988-03-28T08:14:25 +03:00",
        "type": "page",
        "views": "0",
        "likes": "2",
        "comments": "0",
        "permalink": "http://zootool.com/watch/5rqqi/",
        "tinyurl": "http://zoo.tl/5rqqi",
        "thumbnail": "http://placehold.it/32x32",
        "image": "http://placehold.it/100x100",
        "referer": "http://halcyon-theme.tumblr.com/",
        "description": "",
        "tags": [
            "bestofmasonry",
            "masonry",
            "premiumtheme",
            "tumblr",
            "tumblrtheme"
        ],
        "inthezoo": false,
        "public": true
    }
]